%YAML 1.1
%TAG !u! tag:unity3d.com,2011:
--- !u!1 &3767588536272787495
GameObject:
  m_ObjectHideFlags: 0
  m_CorrespondingSourceObject: {fileID: 0}
  m_PrefabInstance: {fileID: 0}
  m_PrefabAsset: {fileID: 0}
  serializedVersion: 6
  m_Component:
  - component: {fileID: 3767588536272787494}
  m_Layer: 0
  m_Name: BP_DarkCastle_Wall_2sided
  m_TagString: Untagged
  m_Icon: {fileID: 0}
  m_NavMeshLayer: 0
  m_StaticEditorFlags: 0
  m_IsActive: 1
--- !u!4 &3767588536272787494
Transform:
  m_ObjectHideFlags: 0
  m_CorrespondingSourceObject: {fileID: 0}
  m_PrefabInstance: {fileID: 0}
  m_PrefabAsset: {fileID: 0}
  m_GameObject: {fileID: 3767588536272787495}
  m_LocalRotation: {x: -0, y: -0, z: -0, w: 1}
  m_LocalPosition: {x: 24.25, y: -2.6672423, z: 18.056957}
  m_LocalScale: {x: 1, y: 1, z: 1}
  m_Children:
  - {fileID: 3767195066005778813}
  - {fileID: 3767195064315112662}
  m_Father: {fileID: 0}
  m_RootOrder: 0
  m_LocalEulerAnglesHint: {x: 0, y: 0, z: 0}
--- !u!1001 &3767588534616798301
PrefabInstance:
  m_ObjectHideFlags: 0
  serializedVersion: 2
  m_Modification:
    m_TransformParent: {fileID: 3767588536272787494}
    m_Modifications:
    - target: {fileID: 1330742489359424, guid: 41849f19442adff4a951d0ff9430516c, type: 3}
      propertyPath: m_Name
      value: dfk_wall_01a (27)
      objectReference: {fileID: 0}
    - target: {fileID: 4198195060786464, guid: 41849f19442adff4a951d0ff9430516c, type: 3}
      propertyPath: m_RootOrder
      value: 0
      objectReference: {fileID: 0}
    - target: {fileID: 4198195060786464, guid: 41849f19442adff4a951d0ff9430516c, type: 3}
      propertyPath: m_LocalScale.x
      value: 1.5000005
      objectReference: {fileID: 0}
    - target: {fileID: 4198195060786464, guid: 41849f19442adff4a951d0ff9430516c, type: 3}
      propertyPath: m_LocalScale.y
      value: 2
      objectReference: {fileID: 0}
    - target: {fileID: 4198195060786464, guid: 41849f19442adff4a951d0ff9430516c, type: 3}
      propertyPath: m_LocalScale.z
      value: 1.5000005
      objectReference: {fileID: 0}
    - target: {fileID: 4198195060786464, guid: 41849f19442adff4a951d0ff9430516c, type: 3}
      propertyPath: m_LocalPosition.x
      value: -1.2266808
      objectReference: {fileID: 0}
    - target: {fileID: 4198195060786464, guid: 41849f19442adff4a951d0ff9430516c, type: 3}
      propertyPath: m_LocalPosition.y
      value: 2.0261836
      objectReference: {fileID: 0}
    - target: {fileID: 4198195060786464, guid: 41849f19442adff4a951d0ff9430516c, type: 3}
      propertyPath: m_LocalPosition.z
      value: 11.133045
      objectReference: {fileID: 0}
    - target: {fileID: 4198195060786464, guid: 41849f19442adff4a951d0ff9430516c, type: 3}
      propertyPath: m_LocalRotation.w
      value: 1
      objectReference: {fileID: 0}
    - target: {fileID: 4198195060786464, guid: 41849f19442adff4a951d0ff9430516c, type: 3}
      propertyPath: m_LocalRotation.x
      value: -0
      objectReference: {fileID: 0}
    - target: {fileID: 4198195060786464, guid: 41849f19442adff4a951d0ff9430516c, type: 3}
      propertyPath: m_LocalRotation.y
      value: -0
      objectReference: {fileID: 0}
    - target: {fileID: 4198195060786464, guid: 41849f19442adff4a951d0ff9430516c, type: 3}
      propertyPath: m_LocalRotation.z
      value: -0
      objectReference: {fileID: 0}
    - target: {fileID: 4198195060786464, guid: 41849f19442adff4a951d0ff9430516c, type: 3}
      propertyPath: m_LocalEulerAnglesHint.x
      value: 0
      objectReference: {fileID: 0}
    - target: {fileID: 4198195060786464, guid: 41849f19442adff4a951d0ff9430516c, type: 3}
      propertyPath: m_LocalEulerAnglesHint.y
      value: 0
      objectReference: {fileID: 0}
    - target: {fileID: 4198195060786464, guid: 41849f19442adff4a951d0ff9430516c, type: 3}
      propertyPath: m_LocalEulerAnglesHint.z
      value: 0
      objectReference: {fileID: 0}
    m_RemovedComponents: []
  m_SourcePrefab: {fileID: 100100000, guid: 41849f19442adff4a951d0ff9430516c, type: 3}
--- !u!4 &3767195066005778813 stripped
Transform:
  m_CorrespondingSourceObject: {fileID: 4198195060786464, guid: 41849f19442adff4a951d0ff9430516c,
    type: 3}
  m_PrefabInstance: {fileID: 3767588534616798301}
  m_PrefabAsset: {fileID: 0}
--- !u!1001 &3767588536288586230
PrefabInstance:
  m_ObjectHideFlags: 0
  serializedVersion: 2
  m_Modification:
    m_TransformParent: {fileID: 3767588536272787494}
    m_Modifications:
    - target: {fileID: 1330742489359424, guid: 41849f19442adff4a951d0ff9430516c, type: 3}
      propertyPath: m_Name
      value: dfk_wall_01a (29)
      objectReference: {fileID: 0}
    - target: {fileID: 4198195060786464, guid: 41849f19442adff4a951d0ff9430516c, type: 3}
      propertyPath: m_RootOrder
      value: 1
      objectReference: {fileID: 0}
    - target: {fileID: 4198195060786464, guid: 41849f19442adff4a951d0ff9430516c, type: 3}
      propertyPath: m_LocalScale.x
      value: 1.5000005
      objectReference: {fileID: 0}
    - target: {fileID: 4198195060786464, guid: 41849f19442adff4a951d0ff9430516c, type: 3}
      propertyPath: m_LocalScale.y
      value: 2
      objectReference: {fileID: 0}
    - target: {fileID: 4198195060786464, guid: 41849f19442adff4a951d0ff9430516c, type: 3}
      propertyPath: m_LocalScale.z
      value: 1.5000005
      objectReference: {fileID: 0}
    - target: {fileID: 4198195060786464, guid: 41849f19442adff4a951d0ff9430516c, type: 3}
      propertyPath: m_LocalPosition.x
      value: -4.9766827
      objectReference: {fileID: 0}
    - target: {fileID: 4198195060786464, guid: 41849f19442adff4a951d0ff9430516c, type: 3}
      propertyPath: m_LocalPosition.y
      value: 2.0261836
      objectReference: {fileID: 0}
    - target: {fileID: 4198195060786464, guid: 41849f19442adff4a951d0ff9430516c, type: 3}
      propertyPath: m_LocalPosition.z
      value: 11.133045
      objectReference: {fileID: 0}
    - target: {fileID: 4198195060786464, guid: 41849f19442adff4a951d0ff9430516c, type: 3}
      propertyPath: m_LocalRotation.w
      value: 0
      objectReference: {fileID: 0}
    - target: {fileID: 4198195060786464, guid: 41849f19442adff4a951d0ff9430516c, type: 3}
      propertyPath: m_LocalRotation.x
      value: -0
      objectReference: {fileID: 0}
    - target: {fileID: 4198195060786464, guid: 41849f19442adff4a951d0ff9430516c, type: 3}
      propertyPath: m_LocalRotation.y
      value: 1
      objectReference: {fileID: 0}
    - target: {fileID: 4198195060786464, guid: 41849f19442adff4a951d0ff9430516c, type: 3}
      propertyPath: m_LocalRotation.z
      value: -0
      objectReference: {fileID: 0}
    - target: {fileID: 4198195060786464, guid: 41849f19442adff4a951d0ff9430516c, type: 3}
      propertyPath: m_LocalEulerAnglesHint.x
      value: 0
      objectReference: {fileID: 0}
    - target: {fileID: 4198195060786464, guid: 41849f19442adff4a951d0ff9430516c, type: 3}
      propertyPath: m_LocalEulerAnglesHint.y
      value: 180
      objectReference: {fileID: 0}
    - target: {fileID: 4198195060786464, guid: 41849f19442adff4a951d0ff9430516c, type: 3}
      propertyPath: m_LocalEulerAnglesHint.z
      value: 0
      objectReference: {fileID: 0}
    m_RemovedComponents: []
  m_SourcePrefab: {fileID: 100100000, guid: 41849f19442adff4a951d0ff9430516c, type: 3}
--- !u!4 &3767195064315112662 stripped
Transform:
  m_CorrespondingSourceObject: {fileID: 4198195060786464, guid: 41849f19442adff4a951d0ff9430516c,
    type: 3}
  m_PrefabInstance: {fileID: 3767588536288586230}
  m_PrefabAsset: {fileID: 0}
